{
    "ionic-plugin-keyboard": {
        "source": {
            "type": "registry",
            "id": "ionic-plugin-keyboard@~2.2.1"
        },
        "is_top_level": true,
        "variables": {}
    },
    "cordova-plugin-whitelist": {
        "source": {
            "type": "registry",
            "id": "cordova-plugin-whitelist@1.3.1"
        },
        "is_top_level": true,
        "variables": {}
    },
    "cordova-plugin-console": {
        "source": {
            "type": "registry",
            "id": "cordova-plugin-console@1.0.5"
        },
        "is_top_level": true,
        "variables": {}
    },
    "cordova-plugin-statusbar": {
        "source": {
            "type": "registry",
            "id": "cordova-plugin-statusbar@2.2.1"
        },
        "is_top_level": true,
        "variables": {}
    },
    "cordova-plugin-device": {
        "source": {
            "type": "registry",
            "id": "cordova-plugin-device@1.1.4"
        },
        "is_top_level": true,
        "variables": {}
    },
    "cordova-plugin-splashscreen": {
        "source": {
            "type": "registry",
            "id": "cordova-plugin-splashscreen@~4.0.1"
        },
        "is_top_level": true,
        "variables": {}
    },
    "cordova-plugin-inappbrowser": {
        "source": {
            "type": "registry",
            "id": "cordova-plugin-inappbrowser@1.7.1"
        },
        "is_top_level": true,
        "variables": {}
    },
    "cordova-plugin-customurlscheme": {
        "source": {
            "type": "registry",
            "id": "https://github.com/EddyVerbruggen/Custom-URL-scheme.git"
        },
        "is_top_level": true,
        "variables": {
            "URL_SCHEME": "urec"
        }
    },
    "com.unarin.cordova.beacon": {
        "source": {
            "type": "registry",
            "id": "com.unarin.cordova.beacon"
        },
        "is_top_level": true,
        "variables": {}
    }
}